{
	"info": {
		"_postman_id": "f4398857-3773-4081-9bfd-7902a24129d5",
		"name": "Capstone-2",
		"schema": "https://schema.getpostman.com/json/collection/v2.1.0/collection.json",
		"_exporter_id": "29788698"
	},
	"item": [
		{
			"name": "User",
			"item": [
				{
					"name": "Admin",
					"item": [
						{
							"name": "Register Admin Users",
							"request": {
								"method": "POST",
								"header": []
							},
							"response": []
						},
						{
							"name": "Retrieve All Users",
							"request": {
								"auth": {
									"type": "bearer",
									"bearer": [
										{
											"key": "token",
											"value": "eyJhbGciOiJIUzI1NiIsInR5cCI6IkpXVCJ9.eyJpZCI6IjY1MGMyYzMyZjE4NTNhODFkM2ViODc5NCIsImVtYWlsIjoiamFuZUBtYWlsLmNvbSIsImlzQWRtaW4iOnRydWUsImlhdCI6MTY5NTM3ODEzM30.0Pneb0TglwmWDNbBjQu3uSjqf7dK9aJjpWTO8quVm0k",
											"type": "string"
										}
									]
								},
								"method": "GET",
								"header": [],
								"url": {
									"raw": "localhost:4001/users/all",
									"host": [
										"localhost"
									],
									"port": "4001",
									"path": [
										"users",
										"all"
									]
								}
							},
							"response": []
						},
						{
							"name": "Retrieve All Admin Users",
							"request": {
								"auth": {
									"type": "bearer",
									"bearer": [
										{
											"key": "token",
											"value": "eyJhbGciOiJIUzI1NiIsInR5cCI6IkpXVCJ9.eyJpZCI6IjY1MGMyYzMyZjE4NTNhODFkM2ViODc5NCIsImVtYWlsIjoiamFuZUBtYWlsLmNvbSIsImlzQWRtaW4iOnRydWUsImlhdCI6MTY5NTM3NjQ5MH0.mFUBqgIafj8DBuo46iDWloHVXB7rcXMXvBnJQ9Ksz3E",
											"type": "string"
										}
									]
								},
								"method": "GET",
								"header": [],
								"url": {
									"raw": "localhost:4001/admin",
									"host": [
										"localhost"
									],
									"port": "4001",
									"path": [
										"admin"
									]
								}
							},
							"response": []
						}
					]
				},
				{
					"name": "Users",
					"item": [
						{
							"name": "User Registration",
							"request": {
								"method": "POST",
								"header": [],
								"body": {
									"mode": "raw",
									"raw": "{\r\n    \"firstName\" : \"Ari\",\r\n    \"lastName\" : \"Reyes\",\r\n    \"phoneNumber\" : \"01234567892\",\r\n    \"email\" : \"ari@mail.com\",\r\n    \"homeAddress\" : \"789 St. Anyzone, PH\",\r\n    \"password\" : \"123456\"\r\n}",
									"options": {
										"raw": {
											"language": "json"
										}
									}
								},
								"url": {
									"raw": "localhost:4001/users/register",
									"host": [
										"localhost"
									],
									"port": "4001",
									"path": [
										"users",
										"register"
									]
								}
							},
							"response": []
						},
						{
							"name": "User Login",
							"request": {
								"method": "POST",
								"header": [],
								"body": {
									"mode": "raw",
									"raw": "",
									"options": {
										"raw": {
											"language": "json"
										}
									}
								}
							},
							"response": []
						}
					]
				}
			]
		},
		{
			"name": "Product",
			"item": [
				{
					"name": "Admin",
					"item": [
						{
							"name": "Add Product",
							"request": {
								"method": "POST",
								"header": [],
								"body": {
									"mode": "raw",
									"raw": "",
									"options": {
										"raw": {
											"language": "json"
										}
									}
								}
							},
							"response": []
						},
						{
							"name": "Update Product",
							"request": {
								"method": "PUT",
								"header": [],
								"url": {
									"raw": ""
								}
							},
							"response": []
						}
					]
				},
				{
					"name": "Users",
					"item": [
						{
							"name": "Retrieve Specific Product",
							"request": {
								"method": "GET",
								"header": []
							},
							"response": []
						},
						{
							"name": "Retrieve Active Products",
							"request": {
								"method": "GET",
								"header": []
							},
							"response": []
						}
					]
				}
			]
		},
		{
			"name": "Order",
			"item": [
				{
					"name": "Admin",
					"item": [
						{
							"name": "Retrieve All Orders",
							"request": {
								"method": "GET",
								"header": []
							},
							"response": []
						},
						{
							"name": "Retrieve Specific Order",
							"request": {
								"method": "GET",
								"header": []
							},
							"response": []
						}
					]
				},
				{
					"name": "Users",
					"item": [
						{
							"name": "Create New Order",
							"request": {
								"method": "POST",
								"header": []
							},
							"response": []
						},
						{
							"name": "Update Order",
							"request": {
								"method": "GET",
								"header": []
							},
							"response": []
						},
						{
							"name": "Delete Order",
							"request": {
								"method": "GET",
								"header": []
							},
							"response": []
						}
					]
				}
			]
		}
	]
}