{
	"info": {
		"_postman_id": "c21c39c7-9c98-4846-82ab-168c14d2726d",
		"name": "S43-S48",
		"schema": "https://schema.getpostman.com/json/collection/v2.1.0/collection.json",
		"_exporter_id": "24211426"
	},
	"item": [
		{
			"name": "Courses",
			"item": [
				{
					"name": "create Course",
					"request": {
						"auth": {
							"type": "bearer",
							"bearer": [
								{
									"key": "token",
									"value": "eyJhbGciOiJIUzI1NiIsInR5cCI6IkpXVCJ9.eyJpZCI6IjYyOGIyOTA5YzZlNmE3MGFhYmUwNmFkMyIsImVtYWlsIjoiYWRtaW5AbWFpbC5jb20iLCJpc0FkbWluIjp0cnVlLCJpYXQiOjE2ODQ5MTgxNzV9._mwPdLeWUYMIGwIbK8CDlAJPXnFI6RSnJrDL5Mz9lKw",
									"type": "string"
								}
							]
						},
						"method": "POST",
						"header": [],
						"body": {
							"mode": "raw",
							"raw": "{\n    \"name\": \"N5\",\n    \"description\": \"Introduction to Nihonggo level 5\",\n    \"price\": 6500\n}",
							"options": {
								"raw": {
									"language": "json"
								}
							}
						},
						"url": {
							"raw": "http://localhost:4000/courses/",
							"protocol": "http",
							"host": [
								"localhost"
							],
							"port": "4000",
							"path": [
								"courses",
								""
							]
						}
					},
					"response": []
				},
				{
					"name": "get ALL courses",
					"request": {
						"auth": {
							"type": "noauth"
						},
						"method": "GET",
						"header": [],
						"url": {
							"raw": "http://localhost:4000/courses/all",
							"protocol": "http",
							"host": [
								"localhost"
							],
							"port": "4000",
							"path": [
								"courses",
								"all"
							]
						}
					},
					"response": []
				},
				{
					"name": "get all ACTIVE courses",
					"request": {
						"method": "GET",
						"header": [],
						"url": {
							"raw": "http://localhost:4000/courses/",
							"protocol": "http",
							"host": [
								"localhost"
							],
							"port": "4000",
							"path": [
								"courses",
								""
							]
						}
					},
					"response": []
				},
				{
					"name": "get Specific Course",
					"request": {
						"method": "GET",
						"header": [],
						"url": {
							"raw": "http://localhost:4000/courses/646dd0dae2d609cb288bbc60",
							"protocol": "http",
							"host": [
								"localhost"
							],
							"port": "4000",
							"path": [
								"courses",
								"646dd0dae2d609cb288bbc60"
							]
						}
					},
					"response": []
				},
				{
					"name": "update a course",
					"request": {
						"auth": {
							"type": "bearer",
							"bearer": [
								{
									"key": "token",
									"value": "eyJhbGciOiJIUzI1NiIsInR5cCI6IkpXVCJ9.eyJpZCI6IjYyOGIyOTA5YzZlNmE3MGFhYmUwNmFkMyIsImVtYWlsIjoiYWRtaW5AbWFpbC5jb20iLCJpc0FkbWluIjp0cnVlLCJpYXQiOjE2ODQ5MTgxNzV9._mwPdLeWUYMIGwIbK8CDlAJPXnFI6RSnJrDL5Mz9lKw",
									"type": "string"
								}
							]
						},
						"method": "PUT",
						"header": [],
						"body": {
							"mode": "raw",
							"raw": "{\n    \"name\": \"Sass\",\n    \"description\": \"Introduction to Sass\",\n    \"price\": 1000\n}",
							"options": {
								"raw": {
									"language": "json"
								}
							}
						},
						"url": {
							"raw": "http://localhost:4000/courses/646dd0dae2d609cb288bbc60",
							"protocol": "http",
							"host": [
								"localhost"
							],
							"port": "4000",
							"path": [
								"courses",
								"646dd0dae2d609cb288bbc60"
							]
						}
					},
					"response": []
				},
				{
					"name": "archive a course",
					"request": {
						"auth": {
							"type": "bearer",
							"bearer": [
								{
									"key": "token",
									"value": "eyJhbGciOiJIUzI1NiIsInR5cCI6IkpXVCJ9.eyJpZCI6IjYyOGIyOTA5YzZlNmE3MGFhYmUwNmFkMyIsImVtYWlsIjoiYWRtaW5AbWFpbC5jb20iLCJpc0FkbWluIjp0cnVlLCJpYXQiOjE2ODQ5MTgxNzV9._mwPdLeWUYMIGwIbK8CDlAJPXnFI6RSnJrDL5Mz9lKw",
									"type": "string"
								}
							]
						},
						"method": "PUT",
						"header": [],
						"url": {
							"raw": "http://localhost:4000/courses/646dd0dae2d609cb288bbc60/archive",
							"protocol": "http",
							"host": [
								"localhost"
							],
							"port": "4000",
							"path": [
								"courses",
								"646dd0dae2d609cb288bbc60",
								"archive"
							]
						}
					},
					"response": []
				},
				{
					"name": "get user's enrollments",
					"request": {
						"auth": {
							"type": "bearer",
							"bearer": [
								{
									"key": "token",
									"value": "eyJhbGciOiJIUzI1NiIsInR5cCI6IkpXVCJ9.eyJpZCI6IjY0NmIzZDJjYzZlMjAxNTUxZGNlNTE1MSIsImVtYWlsIjoiYmVuMTBAbWFpbC5jb20iLCJpc0FkbWluIjpmYWxzZSwiaWF0IjoxNjg0OTg1NTU5fQ.emBG9LTUC5bjS6G580DXOVKc6eBhQLEpazO9tFhp4IU",
									"type": "string"
								}
							]
						},
						"method": "GET",
						"header": [],
						"url": {
							"raw": "http://localhost:4000/users/getEnrollments",
							"protocol": "http",
							"host": [
								"localhost"
							],
							"port": "4000",
							"path": [
								"users",
								"getEnrollments"
							]
						}
					},
					"response": []
				},
				{
					"name": "activate a course",
					"request": {
						"auth": {
							"type": "bearer",
							"bearer": [
								{
									"key": "token",
									"value": "eyJhbGciOiJIUzI1NiIsInR5cCI6IkpXVCJ9.eyJpZCI6IjYyOGIyOTA5YzZlNmE3MGFhYmUwNmFkMyIsImVtYWlsIjoiYWRtaW5AbWFpbC5jb20iLCJpc0FkbWluIjp0cnVlLCJpYXQiOjE2ODQ5MTgxNzV9._mwPdLeWUYMIGwIbK8CDlAJPXnFI6RSnJrDL5Mz9lKw",
									"type": "string"
								}
							]
						},
						"method": "PUT",
						"header": [],
						"url": {
							"raw": "http://localhost:4000/courses/646dd0dae2d609cb288bbc60/activate",
							"protocol": "http",
							"host": [
								"localhost"
							],
							"port": "4000",
							"path": [
								"courses",
								"646dd0dae2d609cb288bbc60",
								"activate"
							]
						}
					},
					"response": []
				}
			]
		},
		{
			"name": "Users",
			"item": [
				{
					"name": "register",
					"request": {
						"method": "POST",
						"header": [],
						"body": {
							"mode": "raw",
							"raw": "{\n    \"firstName\": \"Admin\",\n    \"lastName\": \"Acount\",\n    \"email\": \"admin@mail.com\",\n    \"password\": \"admin123\", \n    \"mobileNo\": \"09123434578\"\n}",
							"options": {
								"raw": {
									"language": "json"
								}
							}
						},
						"url": {
							"raw": "http://localhost:4000/users/register",
							"protocol": "http",
							"host": [
								"localhost"
							],
							"port": "4000",
							"path": [
								"users",
								"register"
							]
						}
					},
					"response": []
				},
				{
					"name": "login",
					"request": {
						"method": "POST",
						"header": [],
						"body": {
							"mode": "raw",
							"raw": "{\n    \"email\": \"admin@mail.com\",\n    \"password\": \"admin123\" \n}",
							"options": {
								"raw": {
									"language": "json"
								}
							}
						},
						"url": {
							"raw": "http://localhost:4000/users/login",
							"protocol": "http",
							"host": [
								"localhost"
							],
							"port": "4000",
							"path": [
								"users",
								"login"
							]
						}
					},
					"response": []
				},
				{
					"name": "get user's details",
					"request": {
						"auth": {
							"type": "noauth"
						},
						"method": "POST",
						"header": [
							{
								"key": "Authorization",
								"value": "",
								"type": "text"
							}
						],
						"body": {
							"mode": "raw",
							"raw": "{\r\n    \"id\" : \"64fede0d57f75fe1324618f5\"\r\n}",
							"options": {
								"raw": {
									"language": "json"
								}
							}
						},
						"url": {
							"raw": "http://localhost:4000/users/details",
							"protocol": "http",
							"host": [
								"localhost"
							],
							"port": "4000",
							"path": [
								"users",
								"details"
							]
						}
					},
					"response": []
				},
				{
					"name": "enroll",
					"request": {
						"auth": {
							"type": "bearer",
							"bearer": [
								{
									"key": "token",
									"value": "eyJhbGciOiJIUzI1NiIsInR5cCI6IkpXVCJ9.eyJpZCI6IjY0NmIzZDJjYzZlMjAxNTUxZGNlNTE1MSIsImVtYWlsIjoiYmVuMTBAbWFpbC5jb20iLCJpc0FkbWluIjpmYWxzZSwiaWF0IjoxNjg0OTg1NTU5fQ.emBG9LTUC5bjS6G580DXOVKc6eBhQLEpazO9tFhp4IU",
									"type": "string"
								}
							]
						},
						"method": "POST",
						"header": [],
						"body": {
							"mode": "raw",
							"raw": "{\n    \"courseId\": \"646dd0dae2d609cb288bbc60\"\n}",
							"options": {
								"raw": {
									"language": "json"
								}
							}
						},
						"url": {
							"raw": "http://localhost:4000/users/enroll",
							"protocol": "http",
							"host": [
								"localhost"
							],
							"port": "4000",
							"path": [
								"users",
								"enroll"
							]
						}
					},
					"response": []
				},
				{
					"name": "check email",
					"request": {
						"method": "POST",
						"header": [],
						"body": {
							"mode": "raw",
							"raw": "{\n\t\"email\": \"mj@mail.com\"\n}",
							"options": {
								"raw": {
									"language": "json"
								}
							}
						},
						"url": {
							"raw": "http://localhost:4000/users/checkEmail",
							"protocol": "http",
							"host": [
								"localhost"
							],
							"port": "4000",
							"path": [
								"users",
								"checkEmail"
							]
						}
					},
					"response": []
				}
			]
		}
	]
}